[gd_resource type="AtlasTexture" load_steps=2 format=2]

[ext_resource path="res://kerno/menuo/resursoj/icons/tab2_3.png" type="Texture2D" id=1]

[resource]
flags = 4
atlas = ExtResource( 1 )
region = Rect2( 0, 0, 30, 15 )
