<?xml version="1.0" encoding="UTF-8" standalone="no"?>
<svg
   xmlns:dc="http://purl.org/dc/elements/1.1/"
   xmlns:cc="http://creativecommons.org/ns#"
   xmlns:rdf="http://www.w3.org/1999/02/22-rdf-syntax-ns#"
   xmlns:svg="http://www.w3.org/2000/svg"
   xmlns="http://www.w3.org/2000/svg"
   xmlns:sodipodi="http://sodipodi.sourceforge.net/DTD/sodipodi-0.dtd"
   xmlns:inkscape="http://www.inkscape.org/namespaces/inkscape"
   width="27"
   height="27"
   viewBox="0 0 27 27"
   version="1.1"
   id="svg8"
   inkscape:version="1.0 (6e3e5246a0, 2020-05-07)"
   sodipodi:docname="rotacio_0.svg">
  <defs
     id="defs2" />
  <sodipodi:namedview
     inkscape:snap-bbox-midpoints="true"
     inkscape:snap-center="true"
     id="base"
     pagecolor="#ffffff"
     bordercolor="#666666"
     borderopacity="1.0"
     inkscape:pageopacity="0.0"
     inkscape:pageshadow="2"
     inkscape:zoom="11.313709"
     inkscape:cx="19.577716"
     inkscape:cy="18.043288"
     inkscape:document-units="px"
     inkscape:current-layer="layer1"
     inkscape:document-rotation="0"
     showgrid="false"
     inkscape:snap-grids="false"
     inkscape:object-nodes="true"
     inkscape:snap-object-midpoints="true"
     inkscape:snap-others="true"
     inkscape:snap-bbox="true"
     inkscape:snap-bbox-edge-midpoints="true"
     inkscape:window-width="1528"
     inkscape:window-height="836"
     inkscape:window-x="72"
     inkscape:window-y="27"
     inkscape:window-maximized="1"
     showguides="true"
     inkscape:guide-bbox="true"
     inkscape:snap-nodes="true"
     inkscape:snap-global="true"
     inkscape:snap-page="false">
    <inkscape:grid
       type="xygrid"
       id="grid847" />
    <sodipodi:guide
       position="13.499998,13.500003"
       orientation="1,0"
       id="guide4374" />
    <sodipodi:guide
       position="13.499998,13.500003"
       orientation="0,-1"
       id="guide4376" />
  </sodipodi:namedview>
  <metadata
     id="metadata5">
    <rdf:RDF>
      <cc:Work
         rdf:about="">
        <dc:format>image/svg+xml</dc:format>
        <dc:type
           rdf:resource="http://purl.org/dc/dcmitype/StillImage" />
        <dc:title />
      </cc:Work>
    </rdf:RDF>
  </metadata>
  <g
     inkscape:label="Слой 1"
     inkscape:groupmode="layer"
     id="layer1">
    <ellipse
       cy="13.404634"
       cx="13.593952"
       id="path1365-7"
       style="fill:none;fill-opacity:1;stroke:#ffffff;stroke-width:0.756;stroke-miterlimit:4;stroke-dasharray:4.536, 4.536;stroke-dashoffset:1.8144;stroke-opacity:1"
       transform="rotate(0.40304526)"
       ry="10.294854"
       rx="10.300658" />
    <ellipse
       style="fill:none;fill-opacity:1;stroke:#ffffff;stroke-width:0.756;stroke-miterlimit:4;stroke-dasharray:4.536, 4.536;stroke-dashoffset:1.8144;stroke-opacity:1"
       id="path1365-7-5"
       cx="13.499998"
       cy="13.499997"
       ry="7.5898342"
       rx="7.5941138" />
    <circle
       style="fill:none;fill-opacity:1;stroke:#ffffff;stroke-width:1.30242;stroke-miterlimit:4;stroke-dasharray:none;stroke-dashoffset:0.46;stroke-opacity:1"
       id="path1365"
       cx="13.5"
       cy="13.5"
       r="12.84879" />
    <circle
       r="4.5483317"
       cy="13.499999"
       cx="13.499999"
       id="path1365-6"
       style="fill:none;fill-opacity:1;stroke:#ffffff;stroke-width:0.9;stroke-miterlimit:4;stroke-dasharray:none;stroke-dashoffset:0.46;stroke-opacity:1" />
  </g>
  <sodipodi:guide
     position="0,250"
     orientation="0,1"
     inkscape:label="baseline"
     id="guide3190" />
  <sodipodi:guide
     position="0,1000"
     orientation="0,1"
     inkscape:label="ascender"
     id="guide3192" />
  <sodipodi:guide
     position="0,1000"
     orientation="0,1"
     inkscape:label="caps"
     id="guide3194" />
  <sodipodi:guide
     position="0,750"
     orientation="0,1"
     inkscape:label="xheight"
     id="guide3196" />
  <sodipodi:guide
     position="0,0"
     orientation="0,1"
     inkscape:label="descender"
     id="guide3198" />
  <sodipodi:guide
     id="guide4357"
     inkscape:label="baseline"
     orientation="0,1"
     position="0,250" />
  <sodipodi:guide
     id="guide4359"
     inkscape:label="ascender"
     orientation="0,1"
     position="0,1000" />
  <sodipodi:guide
     id="guide4361"
     inkscape:label="caps"
     orientation="0,1"
     position="0,1000" />
  <sodipodi:guide
     id="guide4363"
     inkscape:label="xheight"
     orientation="0,1"
     position="0,750" />
  <sodipodi:guide
     id="guide4365"
     inkscape:label="descender"
     orientation="0,1"
     position="0,0" />
  <sodipodi:guide
     position="0,250"
     orientation="0,1"
     inkscape:label="baseline"
     id="guide10111" />
  <sodipodi:guide
     position="0,1000"
     orientation="0,1"
     inkscape:label="ascender"
     id="guide10113" />
  <sodipodi:guide
     position="0,1000"
     orientation="0,1"
     inkscape:label="caps"
     id="guide10115" />
  <sodipodi:guide
     position="0,750"
     orientation="0,1"
     inkscape:label="xheight"
     id="guide10117" />
  <sodipodi:guide
     position="0,0"
     orientation="0,1"
     inkscape:label="descender"
     id="guide10119" />
  <sodipodi:guide
     id="guide3034"
     inkscape:label="baseline"
     orientation="0,1"
     position="0,250" />
  <sodipodi:guide
     id="guide3036"
     inkscape:label="ascender"
     orientation="0,1"
     position="0,1000" />
  <sodipodi:guide
     id="guide3038"
     inkscape:label="caps"
     orientation="0,1"
     position="0,1000" />
  <sodipodi:guide
     id="guide3040"
     inkscape:label="xheight"
     orientation="0,1"
     position="0,750" />
  <sodipodi:guide
     id="guide3042"
     inkscape:label="descender"
     orientation="0,1"
     position="0,0" />
</svg>
