<?xml version="1.0" encoding="UTF-8" standalone="no"?>
<svg
   xmlns:dc="http://purl.org/dc/elements/1.1/"
   xmlns:cc="http://creativecommons.org/ns#"
   xmlns:rdf="http://www.w3.org/1999/02/22-rdf-syntax-ns#"
   xmlns:svg="http://www.w3.org/2000/svg"
   xmlns="http://www.w3.org/2000/svg"
   xmlns:sodipodi="http://sodipodi.sourceforge.net/DTD/sodipodi-0.dtd"
   xmlns:inkscape="http://www.inkscape.org/namespaces/inkscape"
   width="27"
   height="27"
   viewBox="0 0 27 27"
   version="1.1"
   id="svg8"
   inkscape:version="1.0 (6e3e5246a0, 2020-05-07)"
   sodipodi:docname="rotacio_1.svg">
  <defs
     id="defs2">
    <filter
       inkscape:collect="always"
       style="color-interpolation-filters:sRGB"
       id="filter3055"
       x="-0.003599475"
       width="1.007199"
       y="-0.0036005249"
       height="1.007201">
      <feGaussianBlur
         inkscape:collect="always"
         stdDeviation="0.022775922"
         id="feGaussianBlur3057" />
    </filter>
    <filter
       inkscape:collect="always"
       style="color-interpolation-filters:sRGB"
       id="filter3059"
       x="-0.0035990691"
       width="1.0071981"
       y="-0.0036009313"
       height="1.0072019">
      <feGaussianBlur
         inkscape:collect="always"
         stdDeviation="0.030893269"
         id="feGaussianBlur3061" />
    </filter>
  </defs>
  <sodipodi:namedview
     inkscape:snap-intersection-paths="true"
     inkscape:snap-page="true"
     inkscape:snap-bbox-midpoints="true"
     inkscape:snap-center="true"
     id="base"
     pagecolor="#ffffff"
     bordercolor="#666666"
     borderopacity="1.0"
     inkscape:pageopacity="0.0"
     inkscape:pageshadow="2"
     inkscape:zoom="16.000001"
     inkscape:cx="8.8055697"
     inkscape:cy="13.132277"
     inkscape:document-units="px"
     inkscape:current-layer="layer1"
     inkscape:document-rotation="0"
     showgrid="false"
     inkscape:snap-grids="false"
     inkscape:object-nodes="true"
     inkscape:snap-object-midpoints="true"
     inkscape:snap-others="true"
     inkscape:snap-bbox="false"
     inkscape:snap-bbox-edge-midpoints="true"
     inkscape:window-width="1528"
     inkscape:window-height="836"
     inkscape:window-x="72"
     inkscape:window-y="27"
     inkscape:window-maximized="1"
     showguides="true"
     inkscape:guide-bbox="true"
     inkscape:snap-nodes="true"
     inkscape:snap-global="true">
    <inkscape:grid
       type="xygrid"
       id="grid847" />
    <sodipodi:guide
       position="-25.129346,-2.928933"
       orientation="1,0"
       id="guide4374" />
    <sodipodi:guide
       position="30.066668,34.496954"
       orientation="0,-1"
       id="guide4376" />
  </sodipodi:namedview>
  <metadata
     id="metadata5">
    <rdf:RDF>
      <cc:Work
         rdf:about="">
        <dc:format>image/svg+xml</dc:format>
        <dc:type
           rdf:resource="http://purl.org/dc/dcmitype/StillImage" />
        <dc:title />
      </cc:Work>
    </rdf:RDF>
  </metadata>
  <g
     inkscape:label="Слой 1"
     inkscape:groupmode="layer"
     id="layer1">
    <ellipse
       cy="15.350461"
       cx="10.734773"
       id="path1365-7"
       style="opacity:1;fill:none;fill-opacity:1;stroke:#ffffff;stroke-width:0.755906;stroke-miterlimit:4;stroke-dasharray:4.53543, 4.53543;stroke-dashoffset:0;stroke-opacity:1;filter:url(#filter3059)"
       rx="10.300658"
       ry="10.294854"
       transform="rotate(-15.11983,5.1458967,4.0074379)" />
    <ellipse
       style="opacity:1;fill:none;fill-opacity:1;stroke:#ffffff;stroke-width:0.755906;stroke-miterlimit:4;stroke-dasharray:4.53543, 4.53543;stroke-dashoffset:1.81417;stroke-opacity:1;filter:url(#filter3055)"
       id="path1365-7-5"
       cx="5.5585766"
       cy="17.912098"
       rx="7.5941138"
       ry="7.5898342"
       transform="rotate(-29.422716,1.1665698,0.55982898)" />
    <circle
       r="12.84879"
       cy="13.5"
       cx="13.5"
       id="path1365"
       style="fill:none;fill-opacity:1;stroke:#ffffff;stroke-width:1.30242;stroke-miterlimit:4;stroke-dasharray:none;stroke-dashoffset:0.46;stroke-opacity:1" />
    <circle
       style="fill:none;fill-opacity:1;stroke:#ffffff;stroke-width:0.9;stroke-miterlimit:4;stroke-dasharray:none;stroke-dashoffset:0.46;stroke-opacity:1"
       id="path1365-6"
       cx="13.499999"
       cy="13.499999"
       r="4.5483317" />
  </g>
  <sodipodi:guide
     position="0,250"
     orientation="0,1"
     inkscape:label="baseline"
     id="guide3190" />
  <sodipodi:guide
     position="0,1000"
     orientation="0,1"
     inkscape:label="ascender"
     id="guide3192" />
  <sodipodi:guide
     position="0,1000"
     orientation="0,1"
     inkscape:label="caps"
     id="guide3194" />
  <sodipodi:guide
     position="0,750"
     orientation="0,1"
     inkscape:label="xheight"
     id="guide3196" />
  <sodipodi:guide
     position="0,0"
     orientation="0,1"
     inkscape:label="descender"
     id="guide3198" />
  <sodipodi:guide
     id="guide4357"
     inkscape:label="baseline"
     orientation="0,1"
     position="0,250" />
  <sodipodi:guide
     id="guide4359"
     inkscape:label="ascender"
     orientation="0,1"
     position="0,1000" />
  <sodipodi:guide
     id="guide4361"
     inkscape:label="caps"
     orientation="0,1"
     position="0,1000" />
  <sodipodi:guide
     id="guide4363"
     inkscape:label="xheight"
     orientation="0,1"
     position="0,750" />
  <sodipodi:guide
     id="guide4365"
     inkscape:label="descender"
     orientation="0,1"
     position="0,0" />
  <sodipodi:guide
     position="0,250"
     orientation="0,1"
     inkscape:label="baseline"
     id="guide10111" />
  <sodipodi:guide
     position="0,1000"
     orientation="0,1"
     inkscape:label="ascender"
     id="guide10113" />
  <sodipodi:guide
     position="0,1000"
     orientation="0,1"
     inkscape:label="caps"
     id="guide10115" />
  <sodipodi:guide
     position="0,750"
     orientation="0,1"
     inkscape:label="xheight"
     id="guide10117" />
  <sodipodi:guide
     position="0,0"
     orientation="0,1"
     inkscape:label="descender"
     id="guide10119" />
  <sodipodi:guide
     id="guide2759"
     inkscape:label="baseline"
     orientation="0,1"
     position="0,250" />
  <sodipodi:guide
     id="guide2761"
     inkscape:label="ascender"
     orientation="0,1"
     position="0,1000" />
  <sodipodi:guide
     id="guide2763"
     inkscape:label="caps"
     orientation="0,1"
     position="0,1000" />
  <sodipodi:guide
     id="guide2765"
     inkscape:label="xheight"
     orientation="0,1"
     position="0,750" />
  <sodipodi:guide
     id="guide2767"
     inkscape:label="descender"
     orientation="0,1"
     position="0,0" />
  <sodipodi:guide
     id="guide2990"
     inkscape:label="baseline"
     orientation="0,1"
     position="0,250" />
  <sodipodi:guide
     id="guide2992"
     inkscape:label="ascender"
     orientation="0,1"
     position="0,1000" />
  <sodipodi:guide
     id="guide2994"
     inkscape:label="caps"
     orientation="0,1"
     position="0,1000" />
  <sodipodi:guide
     id="guide2996"
     inkscape:label="xheight"
     orientation="0,1"
     position="0,750" />
  <sodipodi:guide
     id="guide2998"
     inkscape:label="descender"
     orientation="0,1"
     position="0,0" />
  <sodipodi:guide
     position="0,250"
     orientation="0,1"
     inkscape:label="baseline"
     id="guide2224" />
  <sodipodi:guide
     position="0,1000"
     orientation="0,1"
     inkscape:label="ascender"
     id="guide2226" />
  <sodipodi:guide
     position="0,1000"
     orientation="0,1"
     inkscape:label="caps"
     id="guide2228" />
  <sodipodi:guide
     position="0,750"
     orientation="0,1"
     inkscape:label="xheight"
     id="guide2230" />
  <sodipodi:guide
     position="0,0"
     orientation="0,1"
     inkscape:label="descender"
     id="guide2232" />
</svg>
